<?xml version="1.0" encoding="utf-8"?>
<!-- Generator: Adobe Illustrator 26.0.3, SVG Export Plug-In . SVG Version: 6.00 Build 0)  -->
<svg version="1.1" id="Calque_1" xmlns="http://www.w3.org/2000/svg" xmlns:xlink="http://www.w3.org/1999/xlink" x="0px" y="0px"
	 viewBox="0 0 40 40" enable-background="new 0 0 40 40" xml:space="preserve">
<path fill="#6359CF" d="M20,0c11,0,20,9,20,20s-9,20-20,20S0,31,0,20S9,0,20,0z"/>
<path fill="#FFFFFF" d="M26.5,10h-10c-1.4,0-2.5,1.1-2.5,2.5V14v1v3v1v3v1v5.5c0,1.4,1.1,2.5,2.5,2.5s2.5-1.1,2.5-2.5V23h3.5
	c1.4,0,2.5-1.1,2.5-2.5S23.9,18,22.5,18H19v-3h7.5c1.4,0,2.5-1.1,2.5-2.5S27.9,10,26.5,10z M18,28.5c0,0.8-0.7,1.5-1.5,1.5
	c-0.8,0-1.5-0.7-1.5-1.5V23h3V28.5z M22.5,19c0.8,0,1.5,0.7,1.5,1.5S23.3,22,22.5,22H19h-1h-3v-3h3h1H22.5z M18,18h-3v-3h3V18z
	 M26.5,14H19h-1h-3v-1.5c0-0.8,0.7-1.5,1.5-1.5h10c0.8,0,1.5,0.7,1.5,1.5S27.3,14,26.5,14z"/>
</svg>
