<svg width="14" height="14" viewBox="0 0 14 14" fill="none" xmlns="http://www.w3.org/2000/svg">
<path d="M8.43781 6.99976L13.7178 1.71977C14.0778 1.35977 14.0778 0.639766 13.7178 0.279766C13.3578 -0.0802344 12.6378 -0.0802344 12.2778 0.279766L6.99781 5.55976L1.71781 0.279766C1.35781 -0.0802344 0.637813 -0.0802344 0.277813 0.279766C-0.0821875 0.639766 -0.0821875 1.35977 0.277813 1.71977L5.55781 6.99976L0.277813 12.2798C-0.0821875 12.6398 -0.0821875 13.3598 0.277813 13.7198C0.517813 13.9598 0.757812 13.9598 0.997813 13.9598C1.23781 13.9598 1.47781 13.8398 1.71781 13.7198L6.99781 8.43976L12.2778 13.7198C12.5178 13.9598 12.7578 13.9598 12.9978 13.9598C13.2378 13.9598 13.4778 13.8398 13.7178 13.7198C14.0778 13.3598 14.0778 12.6398 13.7178 12.2798L8.43781 6.99976Z" fill="#6359CF"/>
</svg>
